Tsibble Exercise
…
library(ggplot2)

Retrieving Data

In this example, we use a data set from the tsibbledata package, nyc_bikes (https://github.com/tidyverts/tsibbledata). nyc_bikes contains information on trips taken in 2018 using NYC rental bikes. The bike_id helps to uniquely identify each observation, and the start_time serves as the index. It is an irregular tsibble, because bike rentals occur at different time intervals.

As a first step, please assign the data frame to an object and check its format.

example <- nyc_bikes
example

## # A tsibble: 4,268 x 12 [!] <America/New_York>
## # Key:       bike_id [10]
##    bike_id start_time          stop_time           start_station start_lat
##    <fct>   <dttm>              <dttm>              <fct>             <dbl>
##  1 26301   2018-02-26 19:11:03 2018-02-26 19:15:40 3186               40.7
##  2 26301   2018-02-27 07:52:49 2018-02-27 07:58:13 3203               40.7
##  3 26301   2018-02-27 12:03:27 2018-02-27 12:04:54 3202               40.7
##  4 26301   2018-02-27 13:53:51 2018-02-27 14:21:04 3638               40.7
##  5 26301   2018-02-27 14:30:42 2018-02-27 14:33:11 3638               40.7
##  6 26301   2018-02-27 16:31:04 2018-02-27 16:33:27 3187               40.7
##  7 26301   2018-02-27 17:37:12 2018-02-27 17:40:49 3638               40.7
##  8 26301   2018-02-27 17:49:10 2018-02-27 17:55:03 3639               40.7
##  9 26301   2018-02-27 18:21:57 2018-02-27 18:25:18 3202               40.7
## 10 26301   2018-02-27 22:08:55 2018-02-27 22:28:42 3638               40.7
## #  with 4,258 more rows, and 7 more variables: start_long <dbl>,
## #   end_station <fct>, end_lat <dbl>, end_long <dbl>, type <fct>,
## #   birth_year <dbl>, gender <fct>
…
count_gaps(example, )

## # A tibble: 0  4
## #  with 4 variables: bike_id <fct>, .from <dttm>, .to <dttm>, .n <int>

example %>% scan_gaps()

## # A tsibble: 0 x 2 [?] <America/New_York>
## # Key:       bike_id [0]
## #  with 2 variables: bike_id <fct>, start_time <dttm>

example %>% fill_gaps()

## # A tsibble: 4,268 x 12 [!] <America/New_York>
## # Key:       bike_id [10]
##    bike_id start_time          stop_time           start_station start_lat
##    <fct>   <dttm>              <dttm>              <fct>             <dbl>
##  1 26301   2018-02-26 19:11:03 2018-02-26 19:15:40 3186               40.7
##  2 26301   2018-02-27 07:52:49 2018-02-27 07:58:13 3203               40.7
##  3 26301   2018-02-27 12:03:27 2018-02-27 12:04:54 3202               40.7
##  4 26301   2018-02-27 13:53:51 2018-02-27 14:21:04 3638               40.7
##  5 26301   2018-02-27 14:30:42 2018-02-27 14:33:11 3638               40.7
##  6 26301   2018-02-27 16:31:04 2018-02-27 16:33:27 3187               40.7
##  7 26301   2018-02-27 17:37:12 2018-02-27 17:40:49 3638               40.7
##  8 26301   2018-02-27 17:49:10 2018-02-27 17:55:03 3639               40.7
##  9 26301   2018-02-27 18:21:57 2018-02-27 18:25:18 3202               40.7
## 10 26301   2018-02-27 22:08:55 2018-02-27 22:28:42 3638               40.7
## #  with 4,258 more rows, and 7 more variables: start_long <dbl>,
## #   end_station <fct>, end_lat <dbl>, end_long <dbl>, type <fct>,
## #   birth_year <dbl>, gender <fct>
…
Here, you can practice how to set up a tsibble. Because we use the same data set as before, you do not need to check and tidy the data again.

nycbikes_ts <- nyc_bikes %>% 
   as_tsibble(key = bike_id, index = start_time, regular = FALSE)

But we want to transform the temporal data a bit differently this time around - measuring the duration of trips in minutes without decimals and compute a variable that contains the start hour for each rented bike.

nyc2 <- nycbikes_ts %>% mutate(duration_mins = as.numeric(
   round(difftime(stop_time, start_time, units = "mins"),0)))

#index by start_hour
nyc2 %>% 
   index_by(start_hour = floor_date(start_time, unit = "1 hour"))

## # A tsibble: 4,268 x 14 [!] <America/New_York>
## # Key:       bike_id [10]
## # Groups:    @ start_hour [2,605]
##    bike_id start_time          stop_time           start_station start_lat
##    <fct>   <dttm>              <dttm>              <fct>             <dbl>
##  1 26301   2018-02-26 19:11:03 2018-02-26 19:15:40 3186               40.7
##  2 26301   2018-02-27 07:52:49 2018-02-27 07:58:13 3203               40.7
##  3 26301   2018-02-27 12:03:27 2018-02-27 12:04:54 3202               40.7
##  4 26301   2018-02-27 13:53:51 2018-02-27 14:21:04 3638               40.7
##  5 26301   2018-02-27 14:30:42 2018-02-27 14:33:11 3638               40.7
##  6 26301   2018-02-27 16:31:04 2018-02-27 16:33:27 3187               40.7
##  7 26301   2018-02-27 17:37:12 2018-02-27 17:40:49 3638               40.7
##  8 26301   2018-02-27 17:49:10 2018-02-27 17:55:03 3639               40.7
##  9 26301   2018-02-27 18:21:57 2018-02-27 18:25:18 3202               40.7
## 10 26301   2018-02-27 22:08:55 2018-02-27 22:28:42 3638               40.7
## #  with 4,258 more rows, and 9 more variables: start_long <dbl>,
## #   end_station <fct>, end_lat <dbl>, end_long <dbl>, type <fct>,
## #   birth_year <dbl>, gender <fct>, duration_mins <dbl>, start_hour <dttm>
…
